@startuml

package perefery as "Переферия - прием запросов - выдача отчетов" {
   node sites as "сайты"
   node lk as "личный кабинет"
}

package middlelayer as "Промежуточный слой B2B" {
   node api
   node billing
   node reporter
   node quality
}

package processing as "Процессинг отчетов" {
   node processing_a
   node processing_b
}

package sources as "Источник" {
   node source1
   node sourceN
}


perefery -down-> middlelayer : "query"
middlelayer -up-> perefery : "report"

middlelayer .down.> processing : "query+\nmeta(vs)"
processing .up.> middlelayer : "facts+\nstate"

processing -down-> sources : "request+\nvs"
sources -up-> processing : "fact+\nstate"

@enduml
